[
    {
        "Path": "github.com/minio/minio",
        "Version": "v0.0.0-20180419184637-5a16671f721f"
    },
    {
        "Path": "github.com/minio/minio-go",
        "Version": "v6.0.14+incompatible"
    },
    {
        "Path": "github.com/minio/sha256-simd",
        "Version": "v0.1.1"
    },
    {
        "Path": "github.com/sirupsen/logrus",
        "Version": "v1.4.2"
    },
    {
        "Path": "golang.org/x/sys",
        "Version": "v0.0.0-20191026070338-33540a1f6037"
    }
]
